{
    "/js/app.js": "/js/app.js",
    "/css/app.css": "/css/app.css",
    "/cpanel/css/cp.css": "/cpanel/css/cp.css",
    "/js/bannerscollection_zoominout.js": "/js/bannerscollection_zoominout.js",
    "/js/jquery.touchSwipe.min.js": "/js/jquery.touchSwipe.min.js"
}
